Locating files
===> NEED TO UPDATE msw1/T200711022342.CDR [ md5 size(516096=>557056) lines(1274)=>1375)]
 flushing old CDRs
Loading file ======
msw1/T200711022342.CDR (1375) 100% <counter> ===
INSERT INTO new_cdr (cdr_file_id,cdr_file_line,start_time,start_time_int,call_duration,originator_ip,terminator_ip,call_source_custid,called_party_on_dst,called_party_on_src,call_type,disconnect_error_type,call_error_int,call_error_str,ani,cdr_seq_no,callid,call_hold_time,call_source_regid,call_source_uport,call_dest_regid,isdn_cause_code,call_party_after_src_calling_plan,call_error_dest_str,new_ani,call_duration_int,incoming_leg_callid,protocol,cdr_type,hunting_attempts,caller_trunk_group,call_pdd,dest_trunk_group,call_duration_fractional,timezone,msw_name,clean_number) VALUES ('26868' -- cdr_file_id
,'1376' -- cdr_file_line
,'2007-11-03 03:24:52' -- start_time
,'1194049492' -- start_time_int
,'000:07:43' -- call_duration
,'63.251.22.118' -- originator_ip
,'' -- terminator_ip
,'' -- call_source_custid
,'' -- called_party_on_dst
,'' -- called_party_on_src
,'' -- call_type
,'' -- disconnect_error_type
,'0' -- call_error_int
,'' -- call_error_str
,'' -- ani
,'' -- cdr_seq_no
,'' -- callid
,'' -- call_hold_time
,'' -- call_source_regid
,'' -- call_source_uport
,'' -- call_dest_regid
,'' -- isdn_cause_code
,'' -- call_party_after_src_calling_plan
,'' -- call_error_dest_str
,'' -- new_ani
,'0' -- call_duration_int
,'' -- incoming_leg_callid
,'' -- protocol
,'' -- cdr_type
,'' -- hunting_attempts
,'' -- caller_trunk_group
,'' -- call_pdd
,'' -- dest_trunk_group
,'0' -- call_duration_fractional
,'' -- timezone
,'' -- msw_name
,'' -- clean_number
)
===
DB Error: invalid number
===
[2~

2007-11-03 03:42:50;1194050570;000:00:00;80.88.244.130;44776;80.88.247.135;;;97336342276;8877#97336342276;IV;01;A;2;abandoned;;;919995752813;;;;48280583;;dedca8c88a6e11dca2fe0003baa24c23;000:00:01;UK_AS5350B;0;2Connect_AS5350B;0;111;97336342276;;;setup-rx#na;919995752813;0;;h323;end1;1;;1;;;;;0.000;GMT-3;2Connect-msw1;;1;1;Realm1;Realm1;BHARTI-BAHRAIN MTC MOBILE 97336;;1;1;1;;;;;;;;;0;0;0;0;unknown;;;;;;;;;;

------------------
alicia testing 1 2 3..

