fetching latest data, dated 14-Apr-09
Done


/var/www/lcr.2connectbahrain.com/www/output/ File Cleaning Done
/var/www/lcr.2connectbahrain.com/www/output/________________________________________________
