fetching latest data, dated 28-Dec-09
Done


/var/www/lcr.2connectbahrain.com/www/output/ File Cleaning Done
/var/www/lcr.2connectbahrain.com/www/output/________________________________________________
