fetching latest data, dated 24-May-09
Done


/var/www/lcr.2connectbahrain.com/www/output/ File Cleaning Done
/var/www/lcr.2connectbahrain.com/www/output/________________________________________________
