fetching latest data, dated 27-Feb-10
Done


/var/www/lcr.2connectbahrain.com/www/output/ File Cleaning Done
/var/www/lcr.2connectbahrain.com/www/output/________________________________________________
