fetching latest data, dated 16-Feb-09
Done


/var/www/lcr.2connectbahrain.com/www/output/ File Cleaning Done
/var/www/lcr.2connectbahrain.com/www/output/________________________________________________
