Skipping (privatespecial1785556 -- no-route) msw2/T200803311052.CDR:99
Skipping (privatespecial1758559 -- no-route) msw2/T200803311052.CDR:693
Skipping (privatespecial1758889 -- no-route) msw2/T200803311052.CDR:808
Skipping (privatespecial1758889 -- no-route) msw2/T200803311052.CDR:1833
Skipping (privatespecial1758889 -- no-route) msw2/T200803311052.CDR:1874
Skipping (privatespecial1758889 -- no-route) msw2/T200803311052.CDR:1989
Skipping (privatespecial1758889 -- no-route) msw2/T200803311052.CDR:2008
Skipping (privatespecial1785556 -- no-route) msw2/T200803311052.CDR:99
Skipping (privatespecial1758559 -- no-route) msw2/T200803311052.CDR:693
Skipping (privatespecial1758889 -- no-route) msw2/T200803311052.CDR:808
Skipping (privatespecial1758889 -- no-route) msw2/T200803311052.CDR:1833
Skipping (privatespecial1758889 -- no-route) msw2/T200803311052.CDR:1874
Skipping (privatespecial1758889 -- no-route) msw2/T200803311052.CDR:1989
Skipping (privatespecial1758889 -- no-route) msw2/T200803311052.CDR:2008
Skipping (cdp.udp17635889 -- no-route) msw2/T200803311052.CDR:4432
Skipping num (privatespecial1785556 -- no-route) msw2/T200803311052.CDR:99
Skipping zone (2Connect-msw2 -- no-route) msw2/T200803311052.CDR:99
Skipping num (privatespecial1758559 -- no-route) msw2/T200803311052.CDR:693
Skipping zone (2Connect-msw2 -- no-route) msw2/T200803311052.CDR:693
Skipping num (privatespecial1758889 -- no-route) msw2/T200803311052.CDR:808
Skipping zone (2Connect-msw2 -- no-route) msw2/T200803311052.CDR:808
Skipping num (privatespecial1758889 -- no-route) msw2/T200803311052.CDR:1833
Skipping zone (2Connect-msw2 -- no-route) msw2/T200803311052.CDR:1833
Skipping num (privatespecial1758889 -- no-route) msw2/T200803311052.CDR:1874
Skipping zone (2Connect-msw2 -- no-route) msw2/T200803311052.CDR:1874
Skipping num (privatespecial1758889 -- no-route) msw2/T200803311052.CDR:1989
Skipping zone (2Connect-msw2 -- no-route) msw2/T200803311052.CDR:1989
Skipping num (privatespecial1758889 -- no-route) msw2/T200803311052.CDR:2008
Skipping zone (2Connect-msw2 -- no-route) msw2/T200803311052.CDR:2008
Skipping num (cdp.udp17635889 -- no-route) msw2/T200803311052.CDR:4432
Skipping zone (2Connect-msw2 -- no-route) msw2/T200803311052.CDR:4432
Skipping zone (2Connect-msw2 -- no-route) msw2/T200803302152.CDR:152
Skipping num (privatespecial1785556 -- no-route) msw2/T200803311052.CDR:99
Skipping zone (2Connect-msw2 -- no-route) msw2/T200803311052.CDR:99
Skipping num (privatespecial1758559 -- no-route) msw2/T200803311052.CDR:693
Skipping zone (2Connect-msw2 -- no-route) msw2/T200803311052.CDR:693
Skipping num (privatespecial1758889 -- no-route) msw2/T200803311052.CDR:808
Skipping zone (2Connect-msw2 -- no-route) msw2/T200803311052.CDR:808
Skipping num (privatespecial1758889 -- no-route) msw2/T200803311052.CDR:1833
Skipping zone (2Connect-msw2 -- no-route) msw2/T200803311052.CDR:1833
Skipping num (privatespecial1758889 -- no-route) msw2/T200803311052.CDR:1874
Skipping zone (2Connect-msw2 -- no-route) msw2/T200803311052.CDR:1874
Skipping num (privatespecial1758889 -- no-route) msw2/T200803311052.CDR:1989
Skipping zone (2Connect-msw2 -- no-route) msw2/T200803311052.CDR:1989
Skipping num (privatespecial1758889 -- no-route) msw2/T200803311052.CDR:2008
Skipping zone (2Connect-msw2 -- no-route) msw2/T200803311052.CDR:2008
Skipping num (cdp.udp17635889 -- no-route) msw2/T200803311052.CDR:4432
Skipping zone (2Connect-msw2 -- no-route) msw2/T200803311052.CDR:4432
Skipping zone (2Connect-msw2 -- no-route) msw2/T200803302152.CDR:152
Skipping num (cdp.udp.com7881122 -- no-bandwidth) msw1/T200804070813.CDR:6098
Skipping zone (2Connect-msw1 -- no-bandwidth) msw1/T200804070813.CDR:6098
